[
  {
    "pk": 112,
    "model": "auth.permission",
    "fields": {
      "codename": "add_logentry",
      "name": "Can add log entry",
      "content_type": 38
    }
  },
  {
    "pk": 113,
    "model": "auth.permission",
    "fields": {
      "codename": "change_logentry",
      "name": "Can change log entry",
      "content_type": 38
    }
  },
  {
    "pk": 114,
    "model": "auth.permission",
    "fields": {
      "codename": "delete_logentry",
      "name": "Can delete log entry",
      "content_type": 38
    }
  },
  {
    "pk": 4,
    "model": "auth.permission",
    "fields": {
      "codename": "add_group",
      "name": "Can add group",
      "content_type": 2
    }
  },
  {
    "pk": 5,
    "model": "auth.permission",
    "fields": {
      "codename": "change_group",
      "name": "Can change group",
      "content_type": 2
    }
  },
  {
    "pk": 6,
    "model": "auth.permission",
    "fields": {
      "codename": "delete_group",
      "name": "Can delete group",
      "content_type": 2
    }
  },
  {
    "pk": 10,
    "model": "auth.permission",
    "fields": {
      "codename": "add_message",
      "name": "Can add message",
      "content_type": 4
    }
  },
  {
    "pk": 11,
    "model": "auth.permission",
    "fields": {
      "codename": "change_message",
      "name": "Can change message",
      "content_type": 4
    }
  },
  {
    "pk": 12,
    "model": "auth.permission",
    "fields": {
      "codename": "delete_message",
      "name": "Can delete message",
      "content_type": 4
    }
  },
  {
    "pk": 1,
    "model": "auth.permission",
    "fields": {
      "codename": "add_permission",
      "name": "Can add permission",
      "content_type": 1
    }
  },
  {
    "pk": 2,
    "model": "auth.permission",
    "fields": {
      "codename": "change_permission",
      "name": "Can change permission",
      "content_type": 1
    }
  },
  {
    "pk": 3,
    "model": "auth.permission",
    "fields": {
      "codename": "delete_permission",
      "name": "Can delete permission",
      "content_type": 1
    }
  },
  {
    "pk": 7,
    "model": "auth.permission",
    "fields": {
      "codename": "add_user",
      "name": "Can add user",
      "content_type": 3
    }
  },
  {
    "pk": 8,
    "model": "auth.permission",
    "fields": {
      "codename": "change_user",
      "name": "Can change user",
      "content_type": 3
    }
  },
  {
    "pk": 9,
    "model": "auth.permission",
    "fields": {
      "codename": "delete_user",
      "name": "Can delete user",
      "content_type": 3
    }
  },
  {
    "pk": 43,
    "model": "auth.permission",
    "fields": {
      "codename": "add_badge",
      "name": "Can add badge",
      "content_type": 15
    }
  },
  {
    "pk": 44,
    "model": "auth.permission",
    "fields": {
      "codename": "change_badge",
      "name": "Can change badge",
      "content_type": 15
    }
  },
  {
    "pk": 45,
    "model": "auth.permission",
    "fields": {
      "codename": "delete_badge",
      "name": "Can delete badge",
      "content_type": 15
    }
  },
  {
    "pk": 49,
    "model": "auth.permission",
    "fields": {
      "codename": "add_difficulty",
      "name": "Can add difficulty",
      "content_type": 17
    }
  },
  {
    "pk": 50,
    "model": "auth.permission",
    "fields": {
      "codename": "change_difficulty",
      "name": "Can change difficulty",
      "content_type": 17
    }
  },
  {
    "pk": 51,
    "model": "auth.permission",
    "fields": {
      "codename": "delete_difficulty",
      "name": "Can delete difficulty",
      "content_type": 17
    }
  },
  {
    "pk": 46,
    "model": "auth.permission",
    "fields": {
      "codename": "add_subtype",
      "name": "Can add sub type",
      "content_type": 16
    }
  },
  {
    "pk": 47,
    "model": "auth.permission",
    "fields": {
      "codename": "change_subtype",
      "name": "Can change sub type",
      "content_type": 16
    }
  },
  {
    "pk": 48,
    "model": "auth.permission",
    "fields": {
      "codename": "delete_subtype",
      "name": "Can delete sub type",
      "content_type": 16
    }
  },
  {
    "pk": 58,
    "model": "auth.permission",
    "fields": {
      "codename": "add_contentalias",
      "name": "Can add content alias",
      "content_type": 20
    }
  },
  {
    "pk": 59,
    "model": "auth.permission",
    "fields": {
      "codename": "change_contentalias",
      "name": "Can change content alias",
      "content_type": 20
    }
  },
  {
    "pk": 60,
    "model": "auth.permission",
    "fields": {
      "codename": "delete_contentalias",
      "name": "Can delete content alias",
      "content_type": 20
    }
  },
  {
    "pk": 52,
    "model": "auth.permission",
    "fields": {
      "codename": "add_subject",
      "name": "Can add subject",
      "content_type": 18
    }
  },
  {
    "pk": 53,
    "model": "auth.permission",
    "fields": {
      "codename": "change_subject",
      "name": "Can change subject",
      "content_type": 18
    }
  },
  {
    "pk": 54,
    "model": "auth.permission",
    "fields": {
      "codename": "delete_subject",
      "name": "Can delete subject",
      "content_type": 18
    }
  },
  {
    "pk": 55,
    "model": "auth.permission",
    "fields": {
      "codename": "add_topic",
      "name": "Can add topic",
      "content_type": 19
    }
  },
  {
    "pk": 56,
    "model": "auth.permission",
    "fields": {
      "codename": "change_topic",
      "name": "Can change topic",
      "content_type": 19
    }
  },
  {
    "pk": 57,
    "model": "auth.permission",
    "fields": {
      "codename": "delete_topic",
      "name": "Can delete topic",
      "content_type": 19
    }
  },
  {
    "pk": 13,
    "model": "auth.permission",
    "fields": {
      "codename": "add_contenttype",
      "name": "Can add content type",
      "content_type": 5
    }
  },
  {
    "pk": 14,
    "model": "auth.permission",
    "fields": {
      "codename": "change_contenttype",
      "name": "Can change content type",
      "content_type": 5
    }
  },
  {
    "pk": 15,
    "model": "auth.permission",
    "fields": {
      "codename": "delete_contenttype",
      "name": "Can delete content type",
      "content_type": 5
    }
  },
  {
    "pk": 22,
    "model": "auth.permission",
    "fields": {
      "codename": "add_account",
      "name": "Can add account",
      "content_type": 8
    }
  },
  {
    "pk": 23,
    "model": "auth.permission",
    "fields": {
      "codename": "change_account",
      "name": "Can change account",
      "content_type": 8
    }
  },
  {
    "pk": 24,
    "model": "auth.permission",
    "fields": {
      "codename": "delete_account",
      "name": "Can delete account",
      "content_type": 8
    }
  },
  {
    "pk": 28,
    "model": "auth.permission",
    "fields": {
      "codename": "add_agegroup",
      "name": "Can add age group",
      "content_type": 10
    }
  },
  {
    "pk": 29,
    "model": "auth.permission",
    "fields": {
      "codename": "change_agegroup",
      "name": "Can change age group",
      "content_type": 10
    }
  },
  {
    "pk": 30,
    "model": "auth.permission",
    "fields": {
      "codename": "delete_agegroup",
      "name": "Can delete age group",
      "content_type": 10
    }
  },
  {
    "pk": 34,
    "model": "auth.permission",
    "fields": {
      "codename": "add_contentonoffmarker",
      "name": "Can add content on off marker",
      "content_type": 12
    }
  },
  {
    "pk": 35,
    "model": "auth.permission",
    "fields": {
      "codename": "change_contentonoffmarker",
      "name": "Can change content on off marker",
      "content_type": 12
    }
  },
  {
    "pk": 36,
    "model": "auth.permission",
    "fields": {
      "codename": "delete_contentonoffmarker",
      "name": "Can delete content on off marker",
      "content_type": 12
    }
  },
  {
    "pk": 25,
    "model": "auth.permission",
    "fields": {
      "codename": "add_language",
      "name": "Can add language",
      "content_type": 9
    }
  },
  {
    "pk": 26,
    "model": "auth.permission",
    "fields": {
      "codename": "change_language",
      "name": "Can change language",
      "content_type": 9
    }
  },
  {
    "pk": 27,
    "model": "auth.permission",
    "fields": {
      "codename": "delete_language",
      "name": "Can delete language",
      "content_type": 9
    }
  },
  {
    "pk": 31,
    "model": "auth.permission",
    "fields": {
      "codename": "add_points",
      "name": "Can add points",
      "content_type": 11
    }
  },
  {
    "pk": 32,
    "model": "auth.permission",
    "fields": {
      "codename": "change_points",
      "name": "Can change points",
      "content_type": 11
    }
  },
  {
    "pk": 33,
    "model": "auth.permission",
    "fields": {
      "codename": "delete_points",
      "name": "Can delete points",
      "content_type": 11
    }
  },
  {
    "pk": 85,
    "model": "auth.permission",
    "fields": {
      "codename": "add_course",
      "name": "Can add course",
      "content_type": 29
    }
  },
  {
    "pk": 86,
    "model": "auth.permission",
    "fields": {
      "codename": "change_course",
      "name": "Can change course",
      "content_type": 29
    }
  },
  {
    "pk": 87,
    "model": "auth.permission",
    "fields": {
      "codename": "delete_course",
      "name": "Can delete course",
      "content_type": 29
    }
  },
  {
    "pk": 88,
    "model": "auth.permission",
    "fields": {
      "codename": "add_coursecontents",
      "name": "Can add course contents",
      "content_type": 30
    }
  },
  {
    "pk": 89,
    "model": "auth.permission",
    "fields": {
      "codename": "change_coursecontents",
      "name": "Can change course contents",
      "content_type": 30
    }
  },
  {
    "pk": 90,
    "model": "auth.permission",
    "fields": {
      "codename": "delete_coursecontents",
      "name": "Can delete course contents",
      "content_type": 30
    }
  },
  {
    "pk": 67,
    "model": "auth.permission",
    "fields": {
      "codename": "add_image",
      "name": "Can add image",
      "content_type": 23
    }
  },
  {
    "pk": 68,
    "model": "auth.permission",
    "fields": {
      "codename": "change_image",
      "name": "Can change image",
      "content_type": 23
    }
  },
  {
    "pk": 69,
    "model": "auth.permission",
    "fields": {
      "codename": "delete_image",
      "name": "Can delete image",
      "content_type": 23
    }
  },
  {
    "pk": 64,
    "model": "auth.permission",
    "fields": {
      "codename": "add_pdffile",
      "name": "Can add pdf file",
      "content_type": 22
    }
  },
  {
    "pk": 65,
    "model": "auth.permission",
    "fields": {
      "codename": "change_pdffile",
      "name": "Can change pdf file",
      "content_type": 22
    }
  },
  {
    "pk": 66,
    "model": "auth.permission",
    "fields": {
      "codename": "delete_pdffile",
      "name": "Can delete pdf file",
      "content_type": 22
    }
  },
  {
    "pk": 61,
    "model": "auth.permission",
    "fields": {
      "codename": "add_video",
      "name": "Can add video",
      "content_type": 21
    }
  },
  {
    "pk": 62,
    "model": "auth.permission",
    "fields": {
      "codename": "change_video",
      "name": "Can change video",
      "content_type": 21
    }
  },
  {
    "pk": 63,
    "model": "auth.permission",
    "fields": {
      "codename": "delete_video",
      "name": "Can delete video",
      "content_type": 21
    }
  },
  {
    "pk": 82,
    "model": "auth.permission",
    "fields": {
      "codename": "add_answer",
      "name": "Can add answer",
      "content_type": 28
    }
  },
  {
    "pk": 83,
    "model": "auth.permission",
    "fields": {
      "codename": "change_answer",
      "name": "Can change answer",
      "content_type": 28
    }
  },
  {
    "pk": 84,
    "model": "auth.permission",
    "fields": {
      "codename": "delete_answer",
      "name": "Can delete answer",
      "content_type": 28
    }
  },
  {
    "pk": 76,
    "model": "auth.permission",
    "fields": {
      "codename": "add_exercise",
      "name": "Can add exercise",
      "content_type": 26
    }
  },
  {
    "pk": 77,
    "model": "auth.permission",
    "fields": {
      "codename": "change_exercise",
      "name": "Can change exercise",
      "content_type": 26
    }
  },
  {
    "pk": 78,
    "model": "auth.permission",
    "fields": {
      "codename": "delete_exercise",
      "name": "Can delete exercise",
      "content_type": 26
    }
  },
  {
    "pk": 79,
    "model": "auth.permission",
    "fields": {
      "codename": "add_exercise_question",
      "name": "Can add exercise_ question",
      "content_type": 27
    }
  },
  {
    "pk": 80,
    "model": "auth.permission",
    "fields": {
      "codename": "change_exercise_question",
      "name": "Can change exercise_ question",
      "content_type": 27
    }
  },
  {
    "pk": 81,
    "model": "auth.permission",
    "fields": {
      "codename": "delete_exercise_question",
      "name": "Can delete exercise_ question",
      "content_type": 27
    }
  },
  {
    "pk": 70,
    "model": "auth.permission",
    "fields": {
      "codename": "add_lesson",
      "name": "Can add lesson",
      "content_type": 24
    }
  },
  {
    "pk": 71,
    "model": "auth.permission",
    "fields": {
      "codename": "change_lesson",
      "name": "Can change lesson",
      "content_type": 24
    }
  },
  {
    "pk": 72,
    "model": "auth.permission",
    "fields": {
      "codename": "delete_lesson",
      "name": "Can delete lesson",
      "content_type": 24
    }
  },
  {
    "pk": 73,
    "model": "auth.permission",
    "fields": {
      "codename": "add_question",
      "name": "Can add question",
      "content_type": 25
    }
  },
  {
    "pk": 74,
    "model": "auth.permission",
    "fields": {
      "codename": "change_question",
      "name": "Can change question",
      "content_type": 25
    }
  },
  {
    "pk": 75,
    "model": "auth.permission",
    "fields": {
      "codename": "delete_question",
      "name": "Can delete question",
      "content_type": 25
    }
  },
  {
    "pk": 100,
    "model": "auth.permission",
    "fields": {
      "codename": "add_registrationprofile",
      "name": "Can add registration profile",
      "content_type": 34
    }
  },
  {
    "pk": 101,
    "model": "auth.permission",
    "fields": {
      "codename": "change_registrationprofile",
      "name": "Can change registration profile",
      "content_type": 34
    }
  },
  {
    "pk": 102,
    "model": "auth.permission",
    "fields": {
      "codename": "delete_registrationprofile",
      "name": "Can delete registration profile",
      "content_type": 34
    }
  },
  {
    "pk": 16,
    "model": "auth.permission",
    "fields": {
      "codename": "add_session",
      "name": "Can add session",
      "content_type": 6
    }
  },
  {
    "pk": 17,
    "model": "auth.permission",
    "fields": {
      "codename": "change_session",
      "name": "Can change session",
      "content_type": 6
    }
  },
  {
    "pk": 18,
    "model": "auth.permission",
    "fields": {
      "codename": "delete_session",
      "name": "Can delete session",
      "content_type": 6
    }
  },
  {
    "pk": 19,
    "model": "auth.permission",
    "fields": {
      "codename": "add_site",
      "name": "Can add site",
      "content_type": 7
    }
  },
  {
    "pk": 20,
    "model": "auth.permission",
    "fields": {
      "codename": "change_site",
      "name": "Can change site",
      "content_type": 7
    }
  },
  {
    "pk": 21,
    "model": "auth.permission",
    "fields": {
      "codename": "delete_site",
      "name": "Can delete site",
      "content_type": 7
    }
  },
  {
    "pk": 91,
    "model": "auth.permission",
    "fields": {
      "codename": "add_account_lesson",
      "name": "Can add account_ lesson",
      "content_type": 31
    }
  },
  {
    "pk": 92,
    "model": "auth.permission",
    "fields": {
      "codename": "change_account_lesson",
      "name": "Can change account_ lesson",
      "content_type": 31
    }
  },
  {
    "pk": 93,
    "model": "auth.permission",
    "fields": {
      "codename": "delete_account_lesson",
      "name": "Can delete account_ lesson",
      "content_type": 31
    }
  },
  {
    "pk": 94,
    "model": "auth.permission",
    "fields": {
      "codename": "add_account_lesson_question",
      "name": "Can add account_ lesson_ question",
      "content_type": 32
    }
  },
  {
    "pk": 95,
    "model": "auth.permission",
    "fields": {
      "codename": "change_account_lesson_question",
      "name": "Can change account_ lesson_ question",
      "content_type": 32
    }
  },
  {
    "pk": 96,
    "model": "auth.permission",
    "fields": {
      "codename": "delete_account_lesson_question",
      "name": "Can delete account_ lesson_ question",
      "content_type": 32
    }
  },
  {
    "pk": 97,
    "model": "auth.permission",
    "fields": {
      "codename": "add_completedexercise",
      "name": "Can add completed exercise",
      "content_type": 33
    }
  },
  {
    "pk": 98,
    "model": "auth.permission",
    "fields": {
      "codename": "change_completedexercise",
      "name": "Can change completed exercise",
      "content_type": 33
    }
  },
  {
    "pk": 99,
    "model": "auth.permission",
    "fields": {
      "codename": "delete_completedexercise",
      "name": "Can delete completed exercise",
      "content_type": 33
    }
  },
  {
    "pk": 106,
    "model": "auth.permission",
    "fields": {
      "codename": "add_teacherstudent",
      "name": "Can add teacher student",
      "content_type": 36
    }
  },
  {
    "pk": 107,
    "model": "auth.permission",
    "fields": {
      "codename": "change_teacherstudent",
      "name": "Can change teacher student",
      "content_type": 36
    }
  },
  {
    "pk": 108,
    "model": "auth.permission",
    "fields": {
      "codename": "delete_teacherstudent",
      "name": "Can delete teacher student",
      "content_type": 36
    }
  },
  {
    "pk": 103,
    "model": "auth.permission",
    "fields": {
      "codename": "add_teacherstudentcontent",
      "name": "Can add teacher student content",
      "content_type": 35
    }
  },
  {
    "pk": 104,
    "model": "auth.permission",
    "fields": {
      "codename": "change_teacherstudentcontent",
      "name": "Can change teacher student content",
      "content_type": 35
    }
  },
  {
    "pk": 105,
    "model": "auth.permission",
    "fields": {
      "codename": "delete_teacherstudentcontent",
      "name": "Can delete teacher student content",
      "content_type": 35
    }
  },
  {
    "pk": 109,
    "model": "auth.permission",
    "fields": {
      "codename": "add_teacherstudenthistory",
      "name": "Can add teacher student history",
      "content_type": 37
    }
  },
  {
    "pk": 110,
    "model": "auth.permission",
    "fields": {
      "codename": "change_teacherstudenthistory",
      "name": "Can change teacher student history",
      "content_type": 37
    }
  },
  {
    "pk": 111,
    "model": "auth.permission",
    "fields": {
      "codename": "delete_teacherstudenthistory",
      "name": "Can delete teacher student history",
      "content_type": 37
    }
  },
  {
    "pk": 37,
    "model": "auth.permission",
    "fields": {
      "codename": "add_translateable",
      "name": "Can add translate able",
      "content_type": 13
    }
  },
  {
    "pk": 38,
    "model": "auth.permission",
    "fields": {
      "codename": "change_translateable",
      "name": "Can change translate able",
      "content_type": 13
    }
  },
  {
    "pk": 39,
    "model": "auth.permission",
    "fields": {
      "codename": "delete_translateable",
      "name": "Can delete translate able",
      "content_type": 13
    }
  },
  {
    "pk": 40,
    "model": "auth.permission",
    "fields": {
      "codename": "add_translation",
      "name": "Can add translation",
      "content_type": 14
    }
  },
  {
    "pk": 41,
    "model": "auth.permission",
    "fields": {
      "codename": "change_translation",
      "name": "Can change translation",
      "content_type": 14
    }
  },
  {
    "pk": 42,
    "model": "auth.permission",
    "fields": {
      "codename": "delete_translation",
      "name": "Can delete translation",
      "content_type": 14
    }
  },
  {
    "pk": 1,
    "model": "auth.group",
    "fields": {
      "name": "moderator",
      "permissions": [
        4,
        5,
        6,
        10,
        11,
        12,
        1,
        2,
        3,
        7,
        8,
        9,
        43,
        44,
        45,
        49,
        50,
        51,
        46,
        47,
        48,
        58,
        59,
        60,
        52,
        53,
        54,
        55,
        56,
        57,
        13,
        14,
        15,
        22,
        23,
        24,
        28,
        29,
        30,
        34,
        35,
        36,
        25,
        26,
        27,
        31,
        32,
        33,
        85,
        86,
        87,
        88,
        89,
        90,
        67,
        68,
        69,
        64,
        65,
        66,
        61,
        62,
        63,
        82,
        83,
        84,
        76,
        77,
        78,
        79,
        80,
        81,
        70,
        71,
        72,
        73,
        74,
        75,
        100,
        101,
        102,
        16,
        17,
        18,
        19,
        20,
        21,
        91,
        92,
        93,
        94,
        95,
        96,
        97,
        98,
        99,
        37,
        38,
        39,
        40,
        41,
        42
      ]
    }
  },
  {
    "pk": 1,
    "model": "auth.user",
    "fields": {
      "username": "admin",
      "first_name": "",
      "last_name": "",
      "is_active": true,
      "is_superuser": true,
      "is_staff": true,
      "last_login": "2011-10-08 16:49:01",
      "groups": [],
      "user_permissions": [],
      "password": "sha1$f7ac0$03c563aeb4f21d07c128693f800a2781d7d04122",
      "email": "javkhlan.sh@nmma.co",
      "date_joined": "2011-09-24 12:42:01"
    }
  },
  {
    "pk": 2,
    "model": "auth.user",
    "fields": {
      "username": "javkhlan", 
      "first_name": "", 
      "last_name": "", 
      "is_active": true, 
      "is_superuser": false, 
      "is_staff": false, 
      "last_login": "2011-10-11 17:54:16", 
      "groups": [
        1
      ],
      "user_permissions": [],
      "password": "sha1$907ed$ede5a748955bb0a15a3227d4e0301fda21b6ca01",
      "email": "javkhlan.sh@nmma.co",
      "date_joined": "2011-09-24 12:43:56"
    }
  },
  {
    "pk": 3,
    "model": "auth.user",
    "fields": {
      "username": "brian",
      "first_name": "",
      "last_name": "",
      "is_active": true,
      "is_superuser": false,
      "is_staff": false,
      "last_login": "2011-09-27 19:42:44",
      "groups": [
        1
      ],
      "user_permissions": [],
      "password": "sha1$063a6$f3906e774c58fd0206832778e1cd0eb18b47326c",
      "email": "brian@teachaclass.org",
      "date_joined": "2011-09-24 16:42:49"
    }
  }
]
