[
  {
    "pk": 1,
    "model": "common.subtype",
    "fields": {
      "type_int": 1,
      "table_name": "practical_answer"
    }
  },
  {
    "pk": 2,
    "model": "common.subtype",
    "fields": {
      "type_int": 2,
      "table_name": "practical_answer"
    }
  },
  {
    "pk": 3,
    "model": "common.subtype",
    "fields": {
      "type_int": 3,
      "table_name": "practical_answer"
    }
  },
  {
    "pk": 77,
    "model": "common.subtype",
    "fields": {
      "type_int": 4,
      "table_name": "courses_course"
    }
  },
  {
    "pk": 80,
    "model": "common.subtype",
    "fields": {
      "type_int": 10,
      "table_name": "translation_translateable"
    }
  },
  {
    "pk": 81,
    "model": "common.subtype",
    "fields": {
      "type_int": 11,
      "table_name": "translation_translateable"
    }
  },
  {
    "pk": 82,
    "model": "common.subtype",
    "fields": {
      "type_int": 12,
      "table_name": "translation_translateable"
    }
  },
  {
    "pk": 83,
    "model": "common.subtype",
    "fields": {
      "type_int": 13,
      "table_name": "translation_translateable"
    }
  },
  {
    "pk": 84,
    "model": "common.subtype",
    "fields": {
      "type_int": 14,
      "table_name": "translation_translateable"
    }
  },
  {
    "pk": 4,
    "model": "common.difficulty",
    "fields": {
      "difficulty_int": 1
    }
  },
  {
    "pk": 5,
    "model": "common.difficulty",
    "fields": {
      "difficulty_int": 2
    }
  },
  {
    "pk": 6,
    "model": "common.difficulty",
    "fields": {
      "difficulty_int": 3
    }
  }
]