[
  {
    "pk": 1,
    "model": "core.account",
    "fields": {
      "gender": true,
      "mobile_number": "0",
      "user": 2,
      "birthdate": "1990-01-01",
      "location": "Mongolia"
    }
  },
  {
    "pk": 2,
    "model": "core.account",
    "fields": {
      "gender": true,
      "mobile_number": "0",
      "user": 3,
      "birthdate": "1990-01-01",
      "location": "Mongolia"
    }
  },
  {
    "pk": 1,
    "model": "core.language",
    "fields": {
      "code": "en-us",
      "language": "English"
    }
  },
  {
    "pk": 2,
    "model": "core.language",
    "fields": {
      "code": "mn",
      "language": "\u041c\u043e\u043d\u0433\u043e\u043b"
    }
  },
  {
    "pk": 3,
    "model": "core.language",
    "fields": {
      "code": "ru",
      "language": "\u0420\u0443\u0441\u0441\u043a\u0438\u0439"
    }
  },
  {
    "pk": 1,
    "model": "core.agegroup",
    "fields": {
      "age": "1"
    }
  },
  {
    "pk": 2,
    "model": "core.agegroup",
    "fields": {
      "age": "2"
    }
  },
  {
    "pk": 3,
    "model": "core.agegroup",
    "fields": {
      "age": "3"
    }
  },
  {
    "pk": 1,
    "model": "core.points",
    "fields": {
      "points": 1
    }
  },
  {
    "pk": 2,
    "model": "core.points",
    "fields": {
      "points": 2
    }
  },
  {
    "pk": 3,
    "model": "core.points",
    "fields": {
      "points": 3
    }
  },
  {
    "pk": 58,
    "model": "core.contentonoffmarker",
    "fields": {
      "offline": false,
      "unique": "2011-09-26 12:22:31.130341"
    }
  },
  {
    "pk": 69,
    "model": "core.contentonoffmarker",
    "fields": {
      "offline": false,
      "unique": "2011-09-27 19:57:14.260318"
    }
  },
  {
    "pk": 89,
    "model": "core.contentonoffmarker",
    "fields": {
      "offline": false,
      "unique": "2011-10-08 16:50:16.797227"
    }
  },
  {
    "pk": 90,
    "model": "core.contentonoffmarker",
    "fields": {
      "offline": false,
      "unique": "2011-10-08 16:50:38.686709"
    }
  },
  {
    "pk": 91,
    "model": "core.contentonoffmarker",
    "fields": {
      "offline": false,
      "unique": "2011-10-08 16:51:18.564520"
    }
  },
  {
    "pk": 92,
    "model": "core.contentonoffmarker",
    "fields": {
      "offline": false,
      "unique": "2011-10-08 16:55:45.600372"
    }
  },
  {
    "pk": 93,
    "model": "core.contentonoffmarker",
    "fields": {
      "offline": false,
      "unique": "2011-10-08 17:12:48.576303"
    }
  },
  {
    "pk": 95,
    "model": "core.contentonoffmarker",
    "fields": {
      "offline": false,
      "unique": "2011-10-11 14:52:31.841610"
    }
  }, 
  {
    "pk": 97, 
    "model": "core.contentonoffmarker", 
    "fields": {
      "offline": false, 
      "unique": "2011-10-11 17:16:26.234517"
    }
  }, 
  {
    "pk": 98, 
    "model": "core.contentonoffmarker", 
    "fields": {
      "offline": false, 
      "unique": "2011-10-11 18:41:48.599128"
    }
  }, 
  {
    "pk": 99, 
    "model": "core.contentonoffmarker", 
    "fields": {
      "offline": false, 
      "unique": "2011-10-11 18:41:58.611951"
    }
  }, 
  {
    "pk": 102, 
    "model": "core.contentonoffmarker", 
    "fields": {
      "offline": false, 
      "unique": "2011-10-11 18:43:25.522766"
    }
  }, 
  {
    "pk": 101, 
    "model": "core.contentonoffmarker", 
    "fields": {
      "offline": false, 
      "unique": "2011-10-11 18:42:23.681624"
    }
  }, 
  {
    "pk": 103, 
    "model": "core.contentonoffmarker", 
    "fields": {
      "offline": false, 
      "unique": "2011-10-11 18:43:42.198494"
    }
  }, 
  {
    "pk": 104, 
    "model": "core.contentonoffmarker", 
    "fields": {
      "offline": false, 
      "unique": "2011-10-11 18:44:21.483647"
    }
  }, 
  {
    "pk": 105, 
    "model": "core.contentonoffmarker", 
    "fields": {
      "offline": false, 
      "unique": "2011-10-11 18:46:36.746329"
    }
  }, 
  {
    "pk": 106, 
    "model": "core.contentonoffmarker", 
    "fields": {
      "offline": false, 
      "unique": "2011-10-11 18:46:57.280080"
    }
  }, 
  {
    "pk": 107, 
    "model": "core.contentonoffmarker", 
    "fields": {
      "offline": false, 
      "unique": "2011-10-11 18:47:20.477584"
    }
  }
]
